{
    "sourceFile": "src/components/update.js",
    "activeCommit": 0,
    "commits": [
        {
            "activePatchIndex": 2,
            "patches": [
                {
                    "date": 1654828653215,
                    "content": "Index: \n===================================================================\n--- \n+++ \n"
                },
                {
                    "date": 1654829087698,
                    "content": "Index: \n===================================================================\n--- \n+++ \n@@ -1,11 +1,11 @@\n import React, { useState, useEffect } from 'react';\n import { Button, Checkbox, Form } from 'semantic-ui-react'\n import axios from 'axios';\n-import { useHistory } from 'react-router';\n+// import { useHistory } from 'react-router';\n \n export default function Update() {\n-    let history = useHistory();\n+    // let history = useHistory();\n     const [id, setID] = useState(null);\n     const [firstName, setFirstName] = useState('');\n     const [lastName, setLastName] = useState('');\n     const [checkbox, setCheckbox] = useState(false);\n@@ -22,9 +22,9 @@\n             firstName,\n             lastName,\n             checkbox\n         }).then(() => {\n-            history.push('/read')\n+            // history.push('/read')\n         })\n     }\n     return (\n         <div>\n"
                },
                {
                    "date": 1655167750181,
                    "content": "Index: \n===================================================================\n--- \n+++ \n@@ -27,9 +27,9 @@\n         })\n     }\n     return (\n         <div>\n-            <Form className=\"create-form\">\n+            <Form class=\"create-form\">\n                 <Form.Field>\n                     <label>First Name</label>\n                     <input placeholder='First Name' value={firstName} onChange={(e) => setFirstName(e.target.value)}/>\n                 </Form.Field>\n"
                }
            ],
            "date": 1654828653215,
            "name": "Commit-0",
            "content": "import React, { useState, useEffect } from 'react';\nimport { Button, Checkbox, Form } from 'semantic-ui-react'\nimport axios from 'axios';\nimport { useHistory } from 'react-router';\n\nexport default function Update() {\n    let history = useHistory();\n    const [id, setID] = useState(null);\n    const [firstName, setFirstName] = useState('');\n    const [lastName, setLastName] = useState('');\n    const [checkbox, setCheckbox] = useState(false);\n\n    useEffect(() => {\n        setID(localStorage.getItem('ID'))\n        setFirstName(localStorage.getItem('First Name'));\n        setLastName(localStorage.getItem('Last Name'));\n        setCheckbox(localStorage.getItem('Checkbox Value'));\n    }, []);\n\n    const updateAPIData = () => {\n        axios.put(`https://60fbca4591156a0017b4c8a7.mockapi.io/fakeData/${id}`, {\n            firstName,\n            lastName,\n            checkbox\n        }).then(() => {\n            history.push('/read')\n        })\n    }\n    return (\n        <div>\n            <Form className=\"create-form\">\n                <Form.Field>\n                    <label>First Name</label>\n                    <input placeholder='First Name' value={firstName} onChange={(e) => setFirstName(e.target.value)}/>\n                </Form.Field>\n                <Form.Field>\n                    <label>Last Name</label>\n                    <input placeholder='Last Name' value={lastName} onChange={(e) => setLastName(e.target.value)}/>\n                </Form.Field>\n                <Form.Field>\n                    <Checkbox label='I agree to the Terms and Conditions' checked={checkbox} onChange={() => setCheckbox(!checkbox)}/>\n                </Form.Field>\n                <Button type='submit' onClick={updateAPIData}>Update</Button>\n            </Form>\n        </div>\n    )\n}"
        }
    ]
}