{
    "sourceFile": "src/App.css",
    "activeCommit": 0,
    "commits": [
        {
            "activePatchIndex": 8,
            "patches": [
                {
                    "date": 1654776961945,
                    "content": "Index: \n===================================================================\n--- \n+++ \n"
                },
                {
                    "date": 1654777225324,
                    "content": "Index: \n===================================================================\n--- \n+++ \n@@ -36,10 +36,5 @@\n     transform: rotate(360deg);\n   }\n }\n \n-.main{\n-  display: flex;\n-  justify-content: center;\n-  align-items: center;\n-  height: 100vh;\n-}\n+\n"
                },
                {
                    "date": 1654783993438,
                    "content": "Index: \n===================================================================\n--- \n+++ \n@@ -36,5 +36,11 @@\n     transform: rotate(360deg);\n   }\n }\n \n+.main{\n+  display: flex;\n+  justify-content: center;\n+  align-items: center;\n+  height: 100vh;\n+}\n \n"
                },
                {
                    "date": 1654784125845,
                    "content": "Index: \n===================================================================\n--- \n+++ \n@@ -43,4 +43,6 @@\n   align-items: center;\n   height: 100vh;\n }\n \n+@import url('https://fonts.googleapis.com/css2?family=Montserrat&display=swap');\n+\n"
                },
                {
                    "date": 1654784139251,
                    "content": "Index: \n===================================================================\n--- \n+++ \n@@ -45,4 +45,8 @@\n }\n \n @import url('https://fonts.googleapis.com/css2?family=Montserrat&display=swap');\n \n+.main-header{\n+  font-family: 'Montserrat', sans-serif;\n+}\n+\n"
                },
                {
                    "date": 1654785668940,
                    "content": "Index: \n===================================================================\n--- \n+++ \n@@ -49,4 +49,9 @@\n .main-header{\n   font-family: 'Montserrat', sans-serif;\n }\n \n+.create-form label{\n+  color: whitesmoke !important;\n+  font-family: 'Montserrat', sans-serif;\n+  font-size: 12px !important;\n+}\n"
                },
                {
                    "date": 1654785693876,
                    "content": "Index: \n===================================================================\n--- \n+++ \n@@ -41,8 +41,11 @@\n   display: flex;\n   justify-content: center;\n   align-items: center;\n   height: 100vh;\n+  background-color: #212121;\n+  color: whitesmoke;\n+  flex-direction: column;\n }\n \n @import url('https://fonts.googleapis.com/css2?family=Montserrat&display=swap');\n \n"
                },
                {
                    "date": 1654788152796,
                    "content": "Index: \n===================================================================\n--- \n+++ \n@@ -52,9 +52,9 @@\n .main-header{\n   font-family: 'Montserrat', sans-serif;\n }\n \n-.create-form label{\n+.create-form label DateInput{\n   color: whitesmoke !important;\n   font-family: 'Montserrat', sans-serif;\n   font-size: 12px !important;\n }\n"
                },
                {
                    "date": 1654788194999,
                    "content": "Index: \n===================================================================\n--- \n+++ \n@@ -52,9 +52,9 @@\n .main-header{\n   font-family: 'Montserrat', sans-serif;\n }\n \n-.create-form label DateInput{\n+.create-form label {\n   color: whitesmoke !important;\n   font-family: 'Montserrat', sans-serif;\n   font-size: 12px !important;\n }\n"
                }
            ],
            "date": 1654776961945,
            "name": "Commit-0",
            "content": ".App {\n  text-align: center;\n}\n\n.App-logo {\n  height: 40vmin;\n  pointer-events: none;\n}\n\n@media (prefers-reduced-motion: no-preference) {\n  .App-logo {\n    animation: App-logo-spin infinite 20s linear;\n  }\n}\n\n.App-header {\n  background-color: #282c34;\n  min-height: 100vh;\n  display: flex;\n  flex-direction: column;\n  align-items: center;\n  justify-content: center;\n  font-size: calc(10px + 2vmin);\n  color: white;\n}\n\n.App-link {\n  color: #61dafb;\n}\n\n@keyframes App-logo-spin {\n  from {\n    transform: rotate(0deg);\n  }\n  to {\n    transform: rotate(360deg);\n  }\n}\n\n.main{\n  display: flex;\n  justify-content: center;\n  align-items: center;\n  height: 100vh;\n}\n"
        }
    ]
}